{
  "type": "service_account",
  "project_id": "sandbox-191019",
  "private_key_id": "20bf460a802af7093bb5e6ee54c65eeaccf7f0a7",
  "private_key": "-----BEGIN PRIVATE KEY-----\nMIIEvgIBADANBgkqhkiG9w0BAQEFAASCBKgwggSkAgEAAoIBAQC5y94gRWDnECgz\nqybS7aw6eJlPiAD4NNI+Yj09Tv0iljxLMDTxY8VLOwmJoEqx8xf48pbT4fx1TspI\n8yz0tdGGBlOhhK4LWrX6+orj2zUSgZuKwwG+1zX+7+GKePVpT8nPeoVnbgknR7hM\noOq2/VPSHPbicu3g6W6I4QCaJmK1OIShL0gRc1nw6wKrxWT4gqUDGqPt3AFljJfO\n/mUIsXt6p6O61vauOwPwgREnLQVue+nR3r+2vc6EOHrKfpH3QRedVIQxvnPqbZsj\n00Uo3R59gtiV6EFoY59U8NZnYO5fUoIGQ3SS8UbnXPfWXY+VkzleB+nSxqv4PtGF\nNoGRr2MzAgMBAAECggEAWhpWpjLPLC9nN6t0YA14HUEYJHwx8Cz5mtxck4tncmsG\nYXZG7puydenzFaXBI6xe/1FyON4a5y7nJdqcfi5gpo0R6L4mA4ahw03WpmrLwaZO\nLsykX48R9gkSSWugpEpX9gEWihLQaJa895iAS27uQ/Lc/fO7jfvWqZXoi1k7PGOQ\n6h01yBRu+9mGuMazwUFC79wB8GaNbMdxyl04S0kbaXF+iEH6PVs5IDF4AU4Hr1ik\n9MwhlLTb5KQqQHXIrcuy4J90pd5jDHZeiJBdPChE7xgmI2FBeBzA/YEO4NSJ0GtG\nFWaiiLNq3KTtTFDtEq7OhIil0en7OTn7yDfzW249/QKBgQDoCbra886bbyWYGtBt\nbkZZXKGhSYzsoEtsxhLTCeFfmzmNqH0jUu4/ZeRpn+GDnyEujdXTnYDPfj0Tcgvw\ntN3My0tpADxoql4BMtLY0/4Vpk0mfMzpJNGYDSvFiofd2dri7aBYmz9d0wJ8jMLm\nrJ/OWIG/VWtfpu1VRIIcdkfYFwKBgQDM+6vDYDK7lKzyBDaACDQeTyO5aKfQSlkl\ngsW3OneZAsuOxzEkH3gx7wN6zmwPdz2q5BP0R4ytTc5GGDDUXr3Wm6WxPh8WiDld\nf8bivXty7UNSjGQoKXzDWTtqS6IxxpXNdkSOGso2DNgWeOuBlffBANW7YMKFymZN\ng3HGBdEjRQKBgQCIB0w3l76DeME9TlrqDD/Jm3hVqVyoS8Br4CKg/aXV+pXe6euS\njceF+yHQmh4Gn39AX33/NNKS0ZrUj4NYdW+h43wt7il74oSBh138JytJXdjUu00V\nULRewznp8LB96n1bk5rw1vJq+oz2nz6TJJf6zAAkPttXk/CGkEcGkIDFuQKBgQCK\naLVGK0KWXoGYuTeDpAZtIMriesQ1ZL5lEbQnUJdI/hYsxltsJMOoE9epqJBWsRE2\nvuKqY1Wd/5d0xQjTnVVZ/6cV0vhy4nC5rXnByGf+5i47IwjOBZV04l+4GnHeYlTs\ncxs/SN+ZN3sBUYzT50tvSv0GlQNEC7KgTE0ahPr+cQKBgBk4YP2216P854WGL4CP\nFVCviHIeyVXERuv+zwHCSpVbT171pEzGz82pES6rhTPVDfByAgmEjlDAp9A9OYyC\naucGr0F3f7dh7oQ3a5UKSPj1gLOU+g0zT9+Kc3oaVo8vLLxt4H+h3Voro+h/Vzed\nKQJMYXiAVxVlWqjXTDe4/NXV\n-----END PRIVATE KEY-----\n",
  "client_email": "new-jenkins@sandbox-191019.iam.gserviceaccount.com",
  "client_id": "104883902706477040198",
  "auth_uri": "https://accounts.google.com/o/oauth2/auth",
  "token_uri": "https://accounts.google.com/o/oauth2/token",
  "auth_provider_x509_cert_url": "https://www.googleapis.com/oauth2/v1/certs",
  "client_x509_cert_url": "https://www.googleapis.com/robot/v1/metadata/x509/new-jenkins%40sandbox-191019.iam.gserviceaccount.com"
}

